<?xml version="1.0" encoding="utf-8"?>
<!-- Generator: Adobe Illustrator 23.0.1, SVG Export Plug-In . SVG Version: 6.00 Build 0)  -->
<svg version="1.1" id="Layer_1" xmlns="http://www.w3.org/2000/svg" xmlns:xlink="http://www.w3.org/1999/xlink" x="0px" y="0px"
	 viewBox="0 0 2000 2000" style="enable-background:new 0 0 2000 2000;" xml:space="preserve">
<style type="text/css">
	.st0{fill:#FFFFFF;stroke:#000000;stroke-miterlimit:10;}
	.st1{fill:#E85097;}
	.st2{fill:#0CAFD2;}
	.st3{fill:#EA581D;}
	.st4{fill:#FFFFFF;}
	.st5{fill:#03578F;}
	.st6{fill:#03578F;stroke:#03578F;stroke-miterlimit:10;}
	.st7{fill:#FFFFFF;stroke:#03578F;stroke-miterlimit:10;}
	.st8{display:none;}
	.st9{display:inline;fill:#03578F;}
</style>
<circle class="st0" cx="1000" cy="1000" r="1000"/>
<g>
	<g id="gens_1_">
		<g>
			<polygon class="st1" points="1006.27,1045.36 1062.99,1086.37 1006.27,1157.47 954.49,1086.37 			"/>
			<polygon class="st1" points="697.66,985.19 697.66,1061.76 631.09,1045.36 626.17,971.53 			"/>
			<polygon class="st1" points="800.81,977.91 835.32,914.1 790.94,866.7 755.61,934.16 			"/>
			<polygon class="st1" points="909.73,927.32 985.9,897.7 985.9,970 904.26,995.53 			"/>
			<ellipse class="st2" cx="601.59" cy="1076.72" rx="26.5" ry="28.16"/>
			<ellipse class="st3" cx="896.44" cy="1053.53" rx="36.44" ry="39.76"/>
			<ellipse class="st2" cx="1004.12" cy="1010.46" rx="26.5" ry="28.16"/>
			<ellipse class="st2" cx="876.57" cy="906.1" rx="28.16" ry="31.47"/>
			<circle class="st2" cx="719.2" cy="950.82" r="28.16"/>
			<ellipse class="st3" cx="778.83" cy="1044.41" rx="56.32" ry="58.81"/>
		</g>
		<g id="drop_1_">
			<polygon id="star_1_" class="st1" points="1235.61,946 1196.99,1020.74 1187.11,938.71 1127.11,931.42 1181.36,898.61 
				1181.36,833.89 1226.57,874.9 1277.52,843 1254.52,898.61 1302.17,952.38 			"/>
			<ellipse id="beed_5_" class="st1" cx="1358.61" cy="983.95" rx="29.82" ry="33.13"/>
			<ellipse class="st3" cx="1269.99" cy="1032.82" rx="45.55" ry="50.52"/>
			<ellipse class="st3" cx="1445.58" cy="983.12" rx="45.55" ry="50.52"/>
			<ellipse class="st3" cx="1588.04" cy="1084.17" rx="45.55" ry="50.52"/>
			<ellipse id="beed_4_" class="st1" cx="1542.48" cy="993.89" rx="29.82" ry="33.13"/>
			<ellipse id="beed_3_" class="st1" cx="1587.21" cy="1179.42" rx="29.82" ry="33.13"/>
			<polygon class="st3" points="1588,1223.1 1633.51,1369.85 1639.87,1426.37 1617.82,1503.85 1605.35,1520.25 1588,1528.46 
				1573.87,1521.16 1564.27,1508.4 1558.17,1491.99 1551.11,1473.76 1544.06,1456.44 1542.48,1437.31 1542.48,1413.6 1544.06,1389 
							"/>
		</g>
		<g id="scupture_1_">
			<ellipse class="st3" cx="1061.27" cy="954.96" rx="19.05" ry="20.71"/>
			<ellipse class="st3" cx="1079.49" cy="1006.31" rx="19.05" ry="20.71"/>
			<ellipse class="st3" cx="1109.31" cy="1051.04" rx="19.05" ry="20.71"/>
			<ellipse class="st3" cx="1145.75" cy="1082.51" rx="19.05" ry="20.71"/>
			<polygon class="st3" points="1088.86,825.69 1112.7,728.6 1054.76,659.79 1141.06,685.76 1209.69,619.69 1179.69,709.47 
				1236.81,767.81 1156.68,754.13 			"/>
			<ellipse class="st3" cx="1221.95" cy="602.13" rx="19.05" ry="20.71"/>
			<ellipse class="st3" cx="1256.74" cy="772.75" rx="19.05" ry="20.71"/>
			<ellipse class="st3" cx="1039.73" cy="648.51" rx="19.05" ry="20.71"/>
			<ellipse class="st3" cx="1074.52" cy="850.6" rx="19.05" ry="20.71"/>
			<ellipse class="st3" cx="1061.27" cy="905.27" rx="19.05" ry="20.71"/>
		</g>
	</g>
	<g id="house_1_">
		<polyline id="door_roof_1_" class="st4" points="817.76,1788.19 817.76,1387.48 798.61,1386.27 976.14,1245.28 1113.12,1400.85 
			1087.9,1408.13 1105.45,1791.5 		"/>
		<polygon id="building_1_" class="st5" points="513.56,1082.27 444.66,1788.19 817.76,1788.19 817.76,1387.48 798.61,1386.27 
			976.14,1245.28 1113.12,1400.85 1087.9,1408.13 1105.45,1791.5 1545.96,1791.5 1465.97,1061.76 		"/>
		<polygon id="door_window_1_" class="st6" points="890.65,1428.58 994.2,1417.03 1004.61,1617.57 890.65,1617.57 		"/>
		<g id="left_window_1_">
			<polygon class="st7" points="743.22,1366.82 743.22,1493.21 700.48,1430.02 			"/>
			<polygon class="st7" points="743.83,1512.66 749.84,1661.53 701.09,1582.85 			"/>
			<polygon class="st7" points="743.83,1671.25 693.14,1592.26 636.7,1686.76 			"/>
			<polygon class="st7" points="625.47,1680.36 686.02,1580.11 640.81,1510.52 587.39,1584.97 			"/>
			<polygon class="st7" points="690.26,1441.86 735.6,1500.2 693.42,1569.78 647.39,1502.32 			"/>
			<polygon class="st7" points="641.16,1350.02 690.26,1418.39 741.84,1346.61 			"/>
			<polygon class="st7" points="638.63,1371.06 685.19,1430.02 642.73,1493.21 591.78,1413.92 			"/>
			<polygon class="st7" points="549.87,1346.61 629.58,1355.27 587.39,1401.14 			"/>
			<polygon class="st7" points="525.75,1455.53 534.8,1352.54 575.35,1409.34 			"/>
			<polygon class="st7" points="538.08,1466.77 582.19,1423.94 634.52,1502.02 582.73,1569.78 			"/>
			<path class="st7" d="M528.5,1474.97"/>
			<polygon class="st7" points="502.2,1682.8 525.75,1471.33 572.88,1581.62 			"/>
			<polygon class="st7" points="578.36,1598.04 617.26,1691 514.8,1693.14 			"/>
		</g>
		<g id="right_window_1_">
			<polygon class="st7" points="1396.93,1401.14 1401.32,1493.21 1358.58,1447.18 			"/>
			<polygon class="st7" points="1348.72,1432.14 1390.37,1382.51 1284.88,1373.79 			"/>
			<polygon class="st7" points="1176.68,1373.79 1217.49,1432.14 1270.09,1378.37 			"/>
			<polygon class="st7" points="1225.44,1443.07 1287.08,1519.65 1339.4,1450.06 1279.68,1393.85 			"/>
			<polygon class="st7" points="1168.46,1395.68 1172.29,1466.48 1208.18,1440.65 			"/>
			<polygon class="st7" points="1179.96,1478.93 1214.76,1450.67 1280.51,1528.15 1237.22,1588.01 			"/>
			<polygon class="st7" points="1170.65,1493.21 1176.39,1676.42 1225.44,1602.29 			"/>
			<polygon class="st7" points="1232.02,1618.08 1192.56,1676.42 1259.95,1673.39 			"/>
			<polygon class="st7" points="1241.33,1600.47 1273.65,1671.25 1329.27,1591.05 1288.99,1540.6 			"/>
			<polygon class="st7" points="1348.44,1462.52 1298.03,1529.97 1335.57,1581.32 1392.82,1500.5 			"/>
			<polygon class="st7" points="1397.56,1510.52 1345.77,1589.84 1399.2,1660.32 			"/>
			<polygon class="st7" points="1339.4,1598.65 1389.8,1668.82 1290.36,1673.08 			"/>
		</g>
	</g>
	<g id="roof_open_1_">
		<polygon class="st5" points="1214.96,342.48 1292.09,275.76 1114.61,328.24 1018.53,234 935.22,285.37 987.24,368.94 
			625.44,473.42 350.31,1050.89 441.04,971 513.56,1082.27 1265.63,433.86 		"/>
	</g>
	<g id="roof_closed" class="st8">
		<polygon class="st9" points="1474.65,954.93 1572.45,952.63 1401.95,876.92 1375.77,737.65 1281.32,723.53 1277.92,825.03 
			931.66,668.65 399.67,948.8 515.48,944.97 513.56,1082.27 1465.97,1061.76 		"/>
	</g>
</g>
</svg>
