<?xml version="1.0" encoding="utf-8"?>
<!-- Generator: Adobe Illustrator 23.0.1, SVG Export Plug-In . SVG Version: 6.00 Build 0)  -->
<svg version="1.1" id="Layer_1" xmlns="http://www.w3.org/2000/svg" xmlns:xlink="http://www.w3.org/1999/xlink" x="0px" y="0px"
	 viewBox="0 0 1000 1000" style="enable-background:new 0 0 1000 1000;" xml:space="preserve">
<style type="text/css">
	.st0{fill:#F04E98;stroke:#FFFFFF;stroke-miterlimit:10;}
	.st1{fill:none;}
	.st2{fill:#FFFFFF;}
	.st3{font-family:'AboveDEMO-Regular';}
	.st4{font-size:700px;}
</style>
<circle class="st0" cx="500.5" cy="500.5" r="500"/>
<rect y="319" class="st1" width="1000" height="681"/>
<text transform="matrix(1 0 0 1 213.0029 780.2979)" class="st2 st3 st4">M</text>
</svg>
